[
    {
        "id": "1",
        "className": "modal--send",
        "header": "Do you want to send this file?",
        "closeButton": true,
        "text": "Once you send this file, it won't be possible to undo this action. Are you sure you want to send it?"
    },

    {
        "id": "2",
        "className": "modal--delete",
        "header": "Do you want to delete this file?",
        "closeButton": false,
        "text": "Once you delete this file, it won't be possible to undo this action. Are you sure you want to delete it?"
    }
]